0 20 6571  1 1 0 0 1 1 0 0 1 0 0 0 1 1 1 1 1 1 1 0
1 20 7806  1 1 0 1 1 0 0 1 1 1 1 0 0 0 0 1 0 1 1 1
2 20 6452  1 1 0 1 1 1 0 0 1 0 1 0 1 0 1 1 1 1 0 1
3 20 6475  0 1 0 1 1 1 1 1 0 1 1 0 0 0 1 1 1 1 1 1
4 20 6655  0 1 1 1 1 0 1 0 0 1 1 1 0 1 0 1 1 1 0 0
5 20 6880  1 0 0 0 0 1 1 1 1 1 1 1 0 0 0 1 0 1 1 1
6 20 4780  1 1 1 1 1 1 0 0 1 1 0 1 0 1 1 0 0 0 1 1
7 20 7244  0 0 1 0 1 1 1 0 0 1 1 1 1 0 0 1 1 0 1 1
8 20 7033  1 1 1 0 1 0 1 0 0 1 0 1 0 0 1 1 1 0 1 1
9 20 7659  0 1 0 1 1 1 0 1 1 1 0 0 1 1 0 1 1 0 1 0
10 20 6581  1 0 0 1 1 1 1 1 1 0 1 0 1 0 1 1 0 1 0 1
11 20 5991  1 0 1 1 1 0 1 0 1 0 1 0 1 1 0 1 0 1 0 1
12 20 5455  0 1 1 1 1 1 1 0 1 0 0 1 0 1 1 0 0 1 1 0
13 20 5512  0 1 1 1 0 1 1 1 1 1 0 0 1 0 0 1 1 1 1 1
14 20 6613  1 1 1 1 1 0 1 1 0 0 1 0 0 1 1 0 0 0 1 1
15 20 6536  0 1 0 1 1 0 0 1 0 1 1 1 1 1 1 0 1 1 1 1
16 20 6351  1 1 1 0 0 1 1 1 0 0 1 1 0 0 1 1 1 1 1 0
17 20 6168  0 0 0 1 1 0 1 1 1 0 1 1 1 1 0 0 1 1 0 1
18 20 6987  0 1 1 0 1 1 1 1 0 1 0 0 1 1 0 1 0 1 1 0
19 20 5297  1 1 0 0 0 1 1 1 1 0 0 1 1 1 0 0 0 0 1 1
20 20 6303  1 1 1 1 1 0 0 1 1 0 1 1 0 1 1 0 1 1 0 0
21 20 6103  1 0 1 1 1 1 1 0 1 0 0 0 0 1 0 1 0 1 1 1
22 20 6164  1 0 0 0 0 1 1 0 0 1 0 1 1 1 1 0 1 0 1 1
23 20 7359  1 1 0 1 1 0 0 1 1 0 1 0 1 1 1 1 1 0 1 0
24 20 7079  1 0 0 1 1 1 0 0 0 1 1 1 1 1 0 1 1 1 0 1
25 20 6251  0 1 0 0 1 0 1 1 0 0 1 0 1 1 1 1 1 1 0 1
26 20 4738  1 1 0 0 1 1 0 1 1 0 0 1 1 1 1 1 1 0 1 0
27 20 6449  1 0 0 1 0 0 1 1 1 0 1 1 0 1 1 1 1 1 1 0
28 20 5894  1 1 0 1 0 0 1 0 0 1 1 1 1 1 1 0 0 0 1 1
29 20 6783  0 1 1 1 0 1 1 0 0 1 1 1 1 0 0 0 1 1 0 1
30 20 5640  1 1 0 1 1 1 1 0 1 0 1 0 0 0 1 0 1 1 1 0
31 20 6040  1 1 0 1 1 1 0 0 0 1 1 1 1 1 1 0 0 0 1 1
32 20 6686  0 1 1 1 0 1 0 1 1 1 0 1 1 1 1 0 0 0 1 1
33 20 6016  1 0 1 1 0 1 1 0 1 1 0 1 0 1 1 1 0 0 1 0
34 20 6682  0 1 0 1 1 0 1 0 1 0 1 0 1 1 0 1 1 1 0 1
35 20 7892  0 1 1 0 1 1 1 1 1 0 0 1 1 1 1 0 1 0 0 1
36 20 6350  0 1 1 1 0 0 1 1 1 1 1 0 0 0 0 1 0 0 1 1
37 20 6454  1 1 1 0 0 1 0 1 1 0 1 1 0 0 0 1 1 1 1 1
38 20 6876  1 0 1 1 0 0 0 0 1 1 0 0 1 1 1 1 1 0 1 1
39 20 6992  1 1 1 1 0 0 1 1 0 1 1 1 1 0 1 0 1 1 1 0
40 20 6199  0 1 1 1 0 1 1 0 1 1 1 0 0 1 1 0 1 1 0 1
41 20 6296  1 1 1 1 0 1 1 1 1 0 0 1 1 0 1 0 0 1 0 0
42 20 6246  1 1 0 1 1 1 1 1 0 0 1 1 0 0 0 1 1 1 0 1
43 20 6277  1 1 1 0 0 1 0 0 1 1 1 0 1 0 1 1 1 0 1 1
44 20 6032  1 1 1 0 1 1 1 0 1 0 1 1 1 0 0 0 0 1 1 1
45 20 6634  0 1 1 1 0 1 1 0 0 1 1 1 0 1 0 1 1 1 0 1
46 20 5613  0 0 0 1 1 1 1 0 0 1 1 1 0 1 1 1 1 0 1 1
47 20 5507  0 0 0 0 1 1 1 1 1 0 1 0 1 1 1 1 0 1 1 0
48 20 6188  1 1 1 1 1 0 1 1 1 1 0 0 0 1 0 0 0 1 0 1
49 20 5288  0 0 1 0 0 0 1 1 0 0 0 1 1 1 0 1 1 0 0 1
50 20 6306  1 0 1 1 1 1 0 0 1 0 1 1 0 0 0 1 0 1 1 1
51 20 7623  1 0 1 1 1 0 0 1 1 1 1 0 0 1 0 1 1 1 0 1
52 20 7069  1 0 0 1 1 1 1 1 1 1 1 1 1 0 1 0 0 1 1 0
53 20 7234  0 1 1 0 1 0 1 1 1 1 1 0 1 1 1 0 0 0 1 0
54 20 6246  0 1 1 1 0 1 0 1 1 1 0 0 1 1 0 1 0 1 1 0
55 20 5384  0 1 1 1 0 0 1 1 0 0 1 1 1 0 0 0 1 0 1 1
56 20 6958  1 1 1 1 1 1 1 0 0 1 1 1 1 0 0 1 0 0 1 0
57 20 7267  1 1 1 0 1 1 1 1 0 0 1 0 0 0 0 1 1 1 1 1
58 20 6832  1 1 1 1 1 1 1 1 1 0 0 0 0 1 1 1 0 0 1 1
59 20 6559  1 1 0 0 0 1 1 0 0 1 1 1 1 1 1 1 0 0 1 1
60 20 6972  0 0 1 1 0 0 1 0 1 1 1 1 1 0 1 1 1 1 1 1
61 20 5948  1 1 1 0 1 1 1 0 0 1 0 1 0 1 1 0 0 0 1 1
62 20 6288  1 0 1 1 1 1 0 1 1 1 1 0 1 1 0 1 0 1 0 1
63 20 6438  0 0 0 0 0 0 1 1 1 0 1 1 1 1 1 1 1 1 0 1
64 20 6741  0 1 1 0 1 1 0 0 0 0 0 1 1 1 1 0 1 0 1 1
65 20 6630  1 1 0 1 0 1 0 0 1 1 1 1 0 1 0 0 0 1 1 1
66 20 6087  1 0 1 0 1 1 0 1 0 1 1 1 1 1 0 0 1 1 0 1
67 20 7886  1 1 0 0 1 1 0 1 0 1 0 1 1 1 0 1 0 1 1 1
68 20 5769  1 1 0 1 1 1 0 0 1 0 1 1 1 1 0 1 1 1 0 1
69 20 7234  1 1 0 1 1 0 1 1 1 0 1 1 1 0 1 0 0 1 1 0
70 20 5080  1 1 0 1 1 0 1 0 1 0 0 1 0 0 1 0 1 0 0 1
71 20 6720  1 1 0 1 1 1 1 1 0 0 1 0 0 0 1 0 1 1 0 1
72 20 6197  1 0 0 0 0 1 1 0 1 1 1 1 1 1 1 1 1 1 1 0
73 20 8559  0 1 1 1 1 0 1 1 0 0 0 1 0 1 1 0 1 1 1 1
74 20 5561  0 1 0 1 1 0 0 1 1 0 1 0 1 1 1 1 0 1 1 1
75 20 5396  1 1 0 1 1 0 1 1 0 0 0 1 1 1 1 1 1 1 0 0
76 20 7210  1 1 1 0 1 1 0 1 1 1 1 1 0 0 1 0 0 1 0 1
77 20 5750  1 1 1 0 0 1 1 1 0 1 1 1 0 0 0 0 1 0 0 1
78 20 5601  1 1 0 1 0 0 1 0 0 1 1 1 1 0 0 1 1 1 1 0
79 20 6604  1 1 0 1 1 1 1 1 1 0 1 1 0 0 1 1 1 0 1 0
80 20 7638  1 1 0 1 1 0 1 1 1 1 0 1 1 1 0 1 0 1 1 0
81 20 6484  1 1 1 0 1 0 1 0 1 0 1 0 0 1 0 1 0 1 1 0
82 20 6367  1 1 0 1 0 1 1 0 0 1 0 1 1 0 1 0 1 1 1 0
83 20 5609  1 0 1 1 1 0 1 0 1 1 1 0 0 1 1 1 0 0 1 1
84 20 5017  1 1 1 0 1 1 0 0 0 1 1 0 0 0 1 0 1 1 0 1
85 20 5615  1 1 1 0 0 1 1 0 0 1 1 0 1 1 0 1 0 1 0 1
86 20 5396  0 1 1 0 0 1 1 1 0 1 1 1 0 1 1 1 1 1 0 1
87 20 5549  0 1 0 1 1 1 1 1 0 0 1 0 1 1 0 1 0 1 0 0
88 20 4783  1 0 1 1 0 1 0 1 1 1 0 0 1 0 1 1 1 1 1 1
89 20 6046  0 1 0 1 0 0 1 1 1 1 1 1 0 0 0 1 1 1 0 0
90 20 6114  0 1 1 1 0 0 1 1 1 1 0 0 0 0 0 1 1 1 1 1
91 20 5987  1 1 1 0 0 1 0 0 0 1 0 1 1 1 1 1 0 1 1 1
92 20 7661  0 1 1 1 0 1 0 0 1 1 0 1 1 0 1 1 1 0 1 1
93 20 6458  1 0 1 1 0 0 0 1 1 1 1 1 0 1 1 0 0 1 1 0
94 20 5780  0 0 0 1 1 1 0 1 1 0 1 1 0 1 0 1 1 0 1 1
95 20 7314  1 1 0 1 1 0 0 0 1 1 1 1 1 1 0 1 0 0 1 0
96 20 5109  1 0 1 1 1 1 1 1 1 0 1 0 0 0 0 1 0 1 0 1
97 20 7075  0 0 0 0 1 0 1 1 1 1 0 1 1 1 1 0 0 1 1 0
98 20 6450  1 0 1 0 1 1 1 1 0 0 0 1 0 1 1 0 1 1 1 1
99 20 7323  1 1 1 0 0 1 1 1 1 1 1 0 0 0 0 1 1 0 1 1
100 20 6620  0 1 1 1 0 0 0 1 1 0 1 0 0 1 1 0 1 0 1 1
101 20 5417  0 0 0 0 1 1 0 0 1 0 0 0 1 1 0 1 1 1 0 1
102 20 5385  1 1 0 0 1 0 0 1 0 0 0 1 1 1 1 1 1 1 1 0
103 20 5661  1 1 1 1 0 0 1 0 1 0 0 0 1 0 1 0 1 1 1 1
104 20 5835  0 1 0 1 1 0 0 1 0 1 1 0 0 1 1 1 1 1 1 1
105 20 4973  1 1 0 1 1 1 0 1 0 1 1 1 0 1 1 1 0 0 0 0
106 20 5544  1 1 0 1 0 1 1 1 0 0 0 1 1 0 1 1 1 1 1 1
107 20 6058  1 1 0 1 0 1 0 0 1 1 1 0 1 0 0 0 1 1 1 1
108 20 6355  1 1 1 0 0 1 1 0 1 1 0 1 1 0 1 1 1 1 0 0
109 20 6825  1 1 1 1 0 1 1 1 1 0 0 1 0 1 0 1 0 1 0 0
110 20 5125  1 0 1 0 1 1 0 1 1 1 1 0 1 0 1 0 1 1 0 1
111 20 5931  0 1 0 0 1 1 1 1 1 1 0 1 1 1 1 1 0 0 1 0
112 20 7076  1 1 0 1 0 1 1 1 1 1 0 0 0 0 1 0 1 1 1 1
113 20 6282  1 0 0 0 1 1 1 1 1 1 1 1 0 0 0 1 1 1 0 0
114 20 6504  1 1 1 0 1 1 1 1 0 0 0 0 1 1 0 1 1 0 1 1
115 20 5911  1 1 0 1 0 1 1 1 1 1 0 1 0 1 0 1 0 0 1 1
116 20 6342  1 1 1 1 0 1 0 1 0 1 0 1 0 1 0 0 1 1 1 0
117 20 5818  0 0 0 0 1 0 1 1 0 1 1 1 1 1 0 1 0 1 1 1
118 20 6127  1 1 1 0 1 1 1 1 1 1 0 1 1 0 0 0 1 0 0 1
119 20 7025  0 1 0 1 1 1 1 1 1 0 1 1 0 0 1 0 1 1 1 0
120 20 6352  1 1 0 1 0 1 1 1 0 0 1 1 0 1 0 1 1 0 1 1
121 20 6713  1 1 0 0 1 1 1 0 1 1 0 0 1 1 1 1 0 1 1 0
122 20 5812  0 1 1 1 1 0 1 1 1 1 0 1 0 0 1 0 0 1 1 1
123 20 6300  0 0 0 1 1 0 1 0 0 1 1 1 1 1 1 1 1 0 0 1
124 20 5554  0 0 1 0 1 1 0 1 0 1 1 1 1 0 1 0 1 0 1 1
125 20 6406  1 1 1 0 0 0 1 1 1 1 1 0 1 1 0 1 1 0 0 1
126 20 7275  0 0 0 1 1 0 1 1 0 0 0 1 1 1 1 1 1 0 1 1
127 20 6199  0 1 1 1 0 0 1 1 1 1 1 0 1 1 0 1 1 0 1 0
128 20 5906  1 0 0 0 0 1 1 0 1 0 1 1 1 1 1 1 0 1 1 0
129 20 5938  1 1 1 1 1 0 0 0 0 0 1 0 1 1 1 0 1 1 1 1
130 20 7557  0 1 1 0 1 1 1 1 1 0 1 0 1 1 0 1 0 1 1 0
131 20 5985  1 0 0 0 0 1 1 1 1 1 0 0 1 1 1 0 1 1 1 0
132 20 5640  1 1 1 0 1 1 1 1 1 1 0 1 1 0 0 0 0 1 0 1
133 20 6112  1 0 0 1 1 1 1 1 0 1 1 1 0 0 0 0 0 0 1 1
134 20 5958  0 0 1 0 0 1 1 1 1 1 1 1 1 0 0 1 0 1 0 1
135 20 6050  0 0 0 1 1 0 0 1 1 1 1 1 1 0 1 1 0 1 0 1
136 20 6422  1 0 0 1 0 1 1 1 0 1 1 1 1 1 1 1 0 0 0 1
137 20 4575  0 1 0 0 1 1 0 1 0 1 1 1 1 1 1 1 1 0 0 1
138 20 6895  1 0 1 1 0 1 1 1 0 1 0 0 1 1 1 0 1 0 0 1
139 20 7149  1 0 1 1 0 0 0 0 1 0 1 1 0 1 1 1 0 1 0 1
140 20 5766  0 1 1 1 0 0 0 0 1 1 1 1 0 0 1 0 1 1 1 1
141 20 6830  0 0 1 0 1 1 1 1 1 1 1 0 1 1 0 1 1 0 1 0
142 20 7365  0 0 0 1 1 0 0 1 1 1 1 0 0 1 0 0 1 1 1 1
143 20 7551  1 1 1 1 0 0 1 1 1 1 1 1 1 0 1 0 1 1 0 0
144 20 6459  1 0 0 1 1 0 1 1 1 1 1 0 1 1 0 0 1 0 1 0
145 20 6942  1 1 1 1 1 1 1 0 0 0 1 1 0 1 0 1 1 1 0 0
146 20 5182  1 1 0 0 0 0 1 1 1 0 1 1 1 1 0 1 0 0 1 0
147 20 6441  1 1 1 1 1 0 1 0 0 1 0 1 0 1 1 1 0 1 1 1
148 20 6955  1 0 1 1 0 1 1 0 1 1 1 1 0 0 1 1 0 1 0 0
149 20 5707  1 0 0 1 0 1 1 1 1 0 1 0 1 1 1 0 0 1 0 1
150 20 6345  0 1 1 0 1 0 1 1 1 0 0 0 1 0 1 1 1 1 1 1
151 20 6018  1 1 0 1 1 1 0 0 1 1 1 1 1 1 1 1 0 0 1 0
152 20 7065  0 0 1 0 1 1 1 1 1 1 0 1 0 1 1 0 0 1 1 1
153 20 5865  1 0 1 1 1 0 1 0 1 1 0 1 0 1 1 0 1 0 1 1
154 20 5756  0 0 1 1 0 0 0 0 1 1 1 1 1 0 1 0 1 1 1 1
155 20 5552  0 1 1 1 1 0 0 1 1 0 1 1 1 0 0 0 1 1 0 1
156 20 5834  0 1 1 0 1 1 0 0 0 1 0 1 1 1 1 0 1 0 0 1
157 20 6172  1 1 0 0 1 0 0 0 1 1 1 1 1 1 1 1 0 1 1 0
158 20 6772  0 0 1 0 1 1 1 1 1 1 0 1 0 1 1 1 1 0 0 1
159 20 6444  1 1 1 1 1 1 1 1 1 0 0 1 0 0 1 0 1 0 0 1
160 20 5712  1 0 1 1 1 1 0 0 1 1 1 0 1 1 0 0 0 0 0 1
161 20 5499  1 1 1 0 1 1 1 1 0 1 0 0 1 1 1 1 1 0 0 1
162 20 5772  0 0 0 1 0 1 1 0 1 0 0 1 1 1 1 1 1 1 0 1
163 20 6209  0 1 0 1 0 0 1 1 0 0 1 1 0 1 0 0 1 1 1 1
164 20 5553  1 1 1 0 1 1 0 1 0 0 1 1 1 1 0 0 0 1 0 0
165 20 6563  0 1 1 0 1 1 0 1 1 1 0 1 0 1 0 1 0 1 1 0
166 20 6474  1 1 0 1 0 0 1 1 1 1 0 1 1 0 0 1 0 1 1 1
167 20 6585  1 1 0 1 0 1 1 0 1 1 1 0 0 1 0 0 1 1 1 0
168 20 6362  0 0 0 1 0 1 1 1 0 1 0 1 1 1 1 1 1 1 0 0
169 20 6025  0 0 1 1 1 1 0 1 0 1 1 0 0 0 0 1 1 1 0 1
170 20 7069  1 1 1 0 0 1 1 0 0 1 1 1 0 1 0 1 0 0 0 1
171 20 6289  0 1 0 1 0 0 1 1 1 1 1 1 1 0 0 1 0 1 1 0
172 20 5483  0 1 1 0 0 1 0 0 1 1 1 1 1 0 0 0 1 1 1 0
173 20 7395  1 1 1 1 0 0 1 1 0 1 0 0 1 1 1 1 0 1 1 0
174 20 7113  1 1 1 1 0 1 1 1 1 1 0 1 1 1 0 0 1 0 0 0
175 20 6094  0 1 1 1 0 1 1 0 1 1 1 1 0 0 1 0 1 1 0 1
176 20 6724  0 0 0 1 1 1 1 1 0 0 1 1 0 1 1 0 1 0 0 1
177 20 6525  1 1 0 0 1 1 1 1 0 0 1 1 0 0 1 0 1 0 1 1
178 20 7057  1 1 1 0 0 1 0 1 0 0 1 0 1 1 0 1 1 1 1 1
179 20 6663  1 1 0 1 1 0 1 0 1 1 1 1 1 1 0 0 1 0 0 1
180 20 4938  0 1 1 1 0 1 1 0 1 0 0 0 1 1 1 1 0 1 1 1
181 20 7259  1 1 1 0 1 1 1 1 1 1 1 0 0 0 0 0 1 0 1 1
182 20 6557  0 1 1 1 1 1 1 0 0 1 0 0 0 1 1 0 0 1 1 1
183 20 6780  0 0 1 1 1 1 0 1 1 1 0 1 1 1 1 1 0 1 0 1
184 20 6877  0 0 1 1 1 0 1 1 1 1 0 1 0 0 1 0 0 1 1 1
185 20 6491  0 0 0 1 1 0 1 1 1 0 1 1 1 1 1 0 1 1 0 1
186 20 6879  1 0 0 1 0 0 1 1 1 1 1 0 1 1 1 1 1 0 1 0
187 20 6034  1 0 0 1 1 0 0 0 1 0 1 1 0 1 1 0 1 1 1 1
188 20 5274  1 1 0 1 1 1 1 0 1 1 1 0 0 0 0 1 0 0 1 0
189 20 5148  0 1 0 1 0 1 1 0 0 0 1 1 1 1 1 1 0 1 1 0
190 20 6999  0 0 1 1 1 1 1 1 0 1 0 1 1 0 0 0 1 1 0 1
191 20 7265  0 1 0 0 1 1 1 1 1 1 0 0 0 0 1 1 1 0 1 1
192 20 6329  1 0 1 1 1 0 0 1 1 1 0 0 0 1 1 1 1 0 0 1
193 20 7605  1 0 1 1 1 1 0 1 1 0 1 1 0 0 0 1 1 0 1 1
194 20 6426  0 1 1 1 1 0 0 1 0 0 1 1 1 1 1 0 1 0 0 1
195 20 6092  1 1 1 1 1 0 0 1 0 0 0 0 1 0 1 1 0 1 1 1
196 20 6259  0 0 1 0 1 0 1 0 1 1 0 0 1 0 1 0 1 1 0 1
197 20 5812  1 0 1 1 1 0 0 1 1 0 1 1 1 0 0 1 0 0 1 1
198 20 5829  1 0 1 1 0 1 1 1 1 1 0 1 1 0 0 0 1 0 0 1
199 20 5695  1 1 1 0 1 0 0 0 1 0 1 0 1 1 1 1 1 0 1 1
